; Engine configuration file.
; It's best edited using the editor UI and not directly,
; since the parameters that go here are not all obvious.
;
; Format:
;   [section] ; section goes between []
;   param=value ; assign values to parameters

config_version=3

[application]

config/name="Kitchen Tales - Camera Shake Recipe"
config/icon="res://icon.png"

[display]

window/size/width=1280
window/size/height=720
window/stretch/mode="viewport"

[node]

name_num_separator=2
name_casing=2

[rendering]

environment/default_environment="res://default_env.tres"
